<?xml version="1.0" encoding="utf-8"?>
<!-- Generator: Adobe Illustrator 20.1.0, SVG Export Plug-In . SVG Version: 6.00 Build 0)  -->
<svg version="1.1" id="Ebene_1" xmlns="http://www.w3.org/2000/svg" xmlns:xlink="http://www.w3.org/1999/xlink" x="0px" y="0px"
	 viewBox="0 0 48 48" style="enable-background:new 0 0 48 48;" xml:space="preserve">
<style type="text/css">
	.st0{fill:none;}
	.st1{fill:#873B8E;}
</style>
<path class="st0" d="M0,0h48v48H0V0z"/>
<path class="st1" d="M40,42c-2.8,0-5.6-0.9-8-2.6c-4.9,3.4-11.1,3.4-16,0c-2.4,1.7-5.2,2.6-8,2.6H4v4h4c2.8,0,5.5-0.7,8-2
	c5,2.6,11,2.6,16,0c2.5,1.3,5.2,2,8,2h4v-4H40z M7.9,38L7.9,38c3.3,0,6.1-1.8,8.1-4c2,2.2,4.8,4,8,4s6-1.8,8-4c2,2.2,4.8,4,8,4h0.1
	l3.8-13.4c0.2-0.5,0.1-1.1-0.1-1.6s-0.7-0.8-1.2-1L40,21.2V12c0-2.2-1.8-4-4-4h-6V2H18v6h-6c-2.2,0-4,1.8-4,4v9.2l-2.6,0.8
	c-0.5,0.2-1,0.5-1.2,1s-0.3,1-0.1,1.6L7.9,38z M12,12h24v7.9L24,16l-12,3.9V12z"/>
</svg>
