<?xml version="1.0" encoding="utf-8"?>
<!-- Generator: Adobe Illustrator 20.1.0, SVG Export Plug-In . SVG Version: 6.00 Build 0)  -->
<svg version="1.1" id="Ebene_1" xmlns="http://www.w3.org/2000/svg" xmlns:xlink="http://www.w3.org/1999/xlink" x="0px" y="0px"
	 viewBox="0 0 48 48" style="enable-background:new 0 0 48 48;" xml:space="preserve">
<style type="text/css">
	.st0{fill:none;}
	.st1{fill:#303030;}
</style>
<path class="st0" d="M0,0h8v8H0V0z"/>
<path class="st1" d="M6.7,7C6.2,7,5.7,6.8,5.3,6.6c-0.8,0.6-1.9,0.6-2.7,0C2.3,6.9,1.8,7,1.3,7H0.7v0.7h0.7c0.5,0,0.9-0.1,1.3-0.3
	c0.8,0.4,1.8,0.4,2.7,0c0.4,0.2,0.9,0.3,1.3,0.3h0.7V7H6.7z M1.3,6.3L1.3,6.3c0.5,0,1-0.3,1.4-0.7C3,6,3.5,6.3,4,6.3S5,6,5.3,5.7
	C5.7,6,6.1,6.3,6.7,6.3h0l0.6-2.2c0-0.1,0-0.2,0-0.3c0-0.1-0.1-0.1-0.2-0.2L6.7,3.5V2c0-0.4-0.3-0.7-0.7-0.7H5v-1H3v1H2
	C1.6,1.3,1.3,1.6,1.3,2v1.5L0.9,3.7c-0.1,0-0.2,0.1-0.2,0.2c0,0.1-0.1,0.2,0,0.3L1.3,6.3z M2,2h4v1.3L4,2.7L2,3.3V2z"/>
</svg>
