<?xml version="1.0" encoding="utf-8"?>
<!-- Generator: Adobe Illustrator 20.1.0, SVG Export Plug-In . SVG Version: 6.00 Build 0)  -->
<svg version="1.1" id="Ebene_1" xmlns="http://www.w3.org/2000/svg" xmlns:xlink="http://www.w3.org/1999/xlink" x="0px" y="0px"
	 viewBox="0 0 48 48" style="enable-background:new 0 0 48 48;" xml:space="preserve">
<style type="text/css">
	.st0{fill:#F5E723;}
	.st1{fill:none;}
</style>
<path class="st0" d="M24,4c-7.7,0-14,6.3-14,14c0,10.5,14,26,14,26s14-15.5,14-26C38,10.3,31.7,4,24,4z M24,23c-2.8,0-5-2.2-5-5
	s2.2-5,5-5s5,2.2,5,5S26.8,23,24,23z"/>
<path class="st1" d="M0,0h48v48H0V0z"/>
</svg>
